axi_ar_waveform.vcd
$date
     Jul 27, 2025       13:55:09
$end

$version
 SystemC 3.0.1-Accellera --- Jul 20 2025 11:31:05
$end

$timescale
     1 ps
$end

$scope module SystemC $end
$var wire    1  aaaaa  clk       $end
$var wire   32  aaaab  rdata [31:0]  $end
$var wire   32  aaaac  rid [31:0]  $end
$var wire    1  aaaad  rready       $end
$var wire    1  aaaae  rvalid       $end
$var wire   32  aaaaf  arlen [31:0]  $end
$var wire   32  aaaag  arsize [31:0]  $end
$var wire   32  aaaah  araddr [31:0]  $end
$var wire   32  aaaai  arid [31:0]  $end
$var wire    1  aaaaj  arready       $end
$var wire    1  aaaak  arvalid       $end
$upscope $end
$enddefinitions  $end

$comment
All initial values are dumped below at time 0 sec = 0 timescale units.
$end

$dumpvars
0aaaaa
b0 aaaab
b0 aaaac
0aaaad
0aaaae
b0 aaaaf
b0 aaaag
b0 aaaah
b0 aaaai
0aaaaj
0aaaak
$end

#5000
1aaaaa

#6250
0aaaaa

#7500
1aaaaa
b1 aaaaf
b111 aaaag
1aaaak

#8750
0aaaaa

#10000
1aaaaa
1aaaaj

#11250
0aaaaa

#12500
1aaaaa
1aaaae
0aaaaj
0aaaak

#13750
0aaaaa

#15000
1aaaaa
1aaaad
b1 aaaai
1aaaak

#16250
0aaaaa

#17500
1aaaaa
1aaaaj

#18750
0aaaaa

#20000
1aaaaa
b1 aaaab
0aaaaj
0aaaak

#21250
0aaaaa

#22500
1aaaaa
b10 aaaab
b11 aaaaf
b10 aaaai
1aaaak

#23750
0aaaaa

#25000
1aaaaa
b11 aaaab
1aaaaj

#26250
0aaaaa

#27500
1aaaaa
0aaaae
0aaaaj
0aaaak

#28750
0aaaaa

#30000
1aaaaa
0aaaad
b0 aaaaf
b11 aaaai
1aaaak

#31250
0aaaaa

#32500
1aaaaa
b1 aaaac
1aaaae
1aaaaj

#33750
0aaaaa

#35000
1aaaaa
1aaaad
0aaaaj
0aaaak

#36250
0aaaaa

#37500
1aaaaa
b0 aaaab
b100 aaaai
1aaaak

#38750
0aaaaa

#40000
1aaaaa
b1 aaaab
1aaaaj

#41250
0aaaaa

#42500
1aaaaa
b10 aaaab
0aaaaj
0aaaak

#43750
0aaaaa

#45000
1aaaaa
b11 aaaab
b11 aaaaf
b101 aaaai
1aaaak

#46250
0aaaaa

#47500
1aaaaa
0aaaae
1aaaaj

#48750
0aaaaa

#50000
1aaaaa
0aaaad
0aaaaj
0aaaak

#51250
0aaaaa

#52500
1aaaaa
b10 aaaac
1aaaae
b100 aaaaf
b110 aaaai
1aaaak

#53750
0aaaaa

#55000
1aaaaa
1aaaad
1aaaaj

#56250
0aaaaa

#57500
1aaaaa
b0 aaaab
0aaaaj
0aaaak

#58750
0aaaaa

#60000
1aaaaa
b1 aaaab
b111 aaaai
1aaaak

#61250
0aaaaa

#62500
1aaaaa
b10 aaaab
1aaaaj

#63750
0aaaaa

#65000
1aaaaa
b11 aaaab
0aaaaj
0aaaak

#66250
0aaaaa

#67500
1aaaaa
b100 aaaab
b1 aaaaf
b1000 aaaai
1aaaak

#68750
0aaaaa

#70000
1aaaaa
b101 aaaab
1aaaaj

#71250
0aaaaa

#72500
1aaaaa
b110 aaaab
0aaaaj
0aaaak

#73750
0aaaaa

#75000
1aaaaa
b111 aaaab
b10 aaaaf
b1001 aaaai
1aaaak

#76250
0aaaaa

#77500
1aaaaa
0aaaae
1aaaaj

#78750
0aaaaa

#80000
1aaaaa
0aaaad
0aaaaj
0aaaak

#81250
0aaaaa

#82500
1aaaaa
b11 aaaac
1aaaae
b1010 aaaai
1aaaak

#83750
0aaaaa

#85000
1aaaaa
1aaaad
1aaaaj

#86250
0aaaaa

#87500
1aaaaa
b0 aaaab
0aaaaj
0aaaak

#88750
0aaaaa

#90000
1aaaaa
b1 aaaab
b100 aaaaf
b1011 aaaai
1aaaak

#91250
0aaaaa

#92500
1aaaaa
0aaaae
1aaaaj

#93750
0aaaaa

#95000
1aaaaa
0aaaad
0aaaaj
0aaaak

#96250
0aaaaa

#97500
1aaaaa
b100 aaaac
1aaaae
b1 aaaaf
b1100 aaaai
1aaaak

#98750
0aaaaa

#100000
1aaaaa
1aaaad
1aaaaj

#101250
0aaaaa

#102500
1aaaaa
b0 aaaab
0aaaaj
0aaaak

#103750
0aaaaa

#105000
1aaaaa
b1 aaaab
b0 aaaaf
b1101 aaaai
1aaaak

#106250
0aaaaa

#107500
1aaaaa
0aaaae
1aaaaj

#108750
0aaaaa

#110000
1aaaaa
0aaaad
0aaaaj
0aaaak

#111250
0aaaaa

#112500
1aaaaa
b101 aaaac
1aaaae
b10 aaaaf
b1110 aaaai
1aaaak

#113750
0aaaaa

#115000
1aaaaa
1aaaad
1aaaaj

#116250
0aaaaa

#117500
1aaaaa
b0 aaaab
0aaaaj
0aaaak

#118750
0aaaaa

#120000
1aaaaa
b1 aaaab
b1 aaaaf
b1111 aaaai
1aaaak

#121250
0aaaaa

#122500
1aaaaa
b10 aaaab
1aaaaj

#123750
0aaaaa

#125000
1aaaaa
b11 aaaab
0aaaaj
0aaaak

#126250
0aaaaa

#127500
1aaaaa
b100 aaaab
b10000 aaaai
1aaaak

#128750
0aaaaa

#130000
1aaaaa
b101 aaaab
1aaaaj

#131250
0aaaaa

#132500
1aaaaa
b110 aaaab
0aaaaj
0aaaak

#133750
0aaaaa

#135000
1aaaaa
b111 aaaab
b10 aaaaf
b10001 aaaai
1aaaak

#136250
0aaaaa

#137500
1aaaaa
0aaaae
1aaaaj

#138750
0aaaaa

#140000
1aaaaa
0aaaad
0aaaaj
0aaaak

#141250
0aaaaa

#142500
1aaaaa
b110 aaaac
1aaaae
b100 aaaaf
b10010 aaaai
1aaaak

#143750
0aaaaa

#145000
1aaaaa
1aaaad
1aaaaj

#146250
0aaaaa

#147500
1aaaaa
b0 aaaab
0aaaaj
0aaaak

#148750
0aaaaa

#150000
1aaaaa
b1 aaaab
b10 aaaaf
b10011 aaaai
1aaaak

#151250
0aaaaa

#152500
1aaaaa
b10 aaaab
1aaaaj

#153750
0aaaaa

#155000
1aaaaa
b11 aaaab
0aaaaj
0aaaak

#156250
0aaaaa

#157500
1aaaaa
b100 aaaab
b100 aaaaf
b10100 aaaai
1aaaak

#158750
0aaaaa

#160000
1aaaaa
b101 aaaab
1aaaaj

#161250
0aaaaa

#162500
1aaaaa
b110 aaaab
0aaaaj
0aaaak

#163750
0aaaaa

#165000
1aaaaa
b111 aaaab
b0 aaaaf
b10101 aaaai
1aaaak

#166250
0aaaaa

#167500
1aaaaa
b1000 aaaab
1aaaaj

#168750
0aaaaa

#170000
1aaaaa
b1001 aaaab
0aaaaj
0aaaak

#171250
0aaaaa

#172500
1aaaaa
0aaaae
b10110 aaaai
1aaaak

#173750
0aaaaa

#175000
1aaaaa
0aaaad
1aaaaj

#176250
0aaaaa

#177500
1aaaaa
b111 aaaac
1aaaae
0aaaaj
0aaaak

#178750
0aaaaa

#180000
1aaaaa
1aaaad
b10 aaaaf
b10111 aaaai
1aaaak

#181250
0aaaaa

#182500
1aaaaa
b0 aaaab
1aaaaj

#183750
0aaaaa

#185000
1aaaaa
b1 aaaab
0aaaaj
0aaaak

#186250
0aaaaa

#187500
1aaaaa
b10 aaaab
b1 aaaaf
b11000 aaaai
1aaaak

#188750
0aaaaa

#190000
1aaaaa
b11 aaaab
1aaaaj

#191250
0aaaaa

#192500
1aaaaa
b100 aaaab
0aaaaj
0aaaak

#193750
0aaaaa

#195000
1aaaaa
b101 aaaab
b10 aaaaf
b11001 aaaai
1aaaak

#196250
0aaaaa

#197500
1aaaaa
b110 aaaab
1aaaaj

#198750
0aaaaa

#200000
1aaaaa
b111 aaaab
0aaaaj
0aaaak

#201250
0aaaaa

#202500
1aaaaa
b1000 aaaab
b0 aaaaf
b11010 aaaai
1aaaak

#203750
0aaaaa

#205000
1aaaaa
b1001 aaaab
1aaaaj

#206250
0aaaaa

#207500
1aaaaa
0aaaae
0aaaaj
0aaaak

#208750
0aaaaa

#210000
1aaaaa
0aaaad
b1 aaaaf
b11011 aaaai
1aaaak

#211250
0aaaaa

#212500
1aaaaa
b1000 aaaac
1aaaae
1aaaaj

#213750
0aaaaa

#215000
1aaaaa
1aaaad
0aaaaj
0aaaak

#216250
0aaaaa

#217500
1aaaaa
b0 aaaab
b100 aaaaf
b11100 aaaai
1aaaak

#218750
0aaaaa

#220000
1aaaaa
b1 aaaab
1aaaaj

#221250
0aaaaa

#222500
1aaaaa
b10 aaaab
0aaaaj
0aaaak

#223750
0aaaaa

#225000
1aaaaa
b11 aaaab
b0 aaaaf
b11101 aaaai
1aaaak

#226250
0aaaaa

#227500
1aaaaa
0aaaae
1aaaaj

#228750
0aaaaa

#230000
1aaaaa
0aaaad
0aaaaj
0aaaak

#231250
0aaaaa

#232500
1aaaaa
b1001 aaaac
1aaaae
b11 aaaaf
b11110 aaaai
1aaaak

#233750
0aaaaa

#235000
1aaaaa
1aaaad
1aaaaj

#236250
0aaaaa

#237500
1aaaaa
b0 aaaab
0aaaaj
0aaaak

#238750
0aaaaa

#240000
1aaaaa
b1 aaaab
b0 aaaaf
b11111 aaaai
1aaaak

#241250
0aaaaa

#242500
1aaaaa
b10 aaaab
1aaaaj

#243750
0aaaaa

#245000
1aaaaa
b11 aaaab
0aaaaj
0aaaak

#246250
0aaaaa

#247500
1aaaaa
b100 aaaab
b11 aaaaf
b100000 aaaai
1aaaak

#248750
0aaaaa

#250000
1aaaaa
b101 aaaab
1aaaaj

#251250
0aaaaa

#252500
1aaaaa
0aaaae
0aaaaj
0aaaak

#253750
0aaaaa

#255000
1aaaaa
0aaaad
b100 aaaaf
b100001 aaaai
1aaaak

#256250
0aaaaa

#257500
1aaaaa
b1010 aaaac
1aaaae
1aaaaj

#258750
0aaaaa

#260000
1aaaaa
1aaaad
0aaaaj
0aaaak

#261250
0aaaaa

#262500
1aaaaa
b0 aaaab
b1 aaaaf
b100010 aaaai
1aaaak

#263750
0aaaaa

#265000
1aaaaa
b1 aaaab
1aaaaj

#266250
0aaaaa

#267500
1aaaaa
b10 aaaab
0aaaaj
0aaaak

#268750
0aaaaa

#270000
1aaaaa
b11 aaaab
b11 aaaaf
b100011 aaaai
1aaaak

#271250
0aaaaa

#272500
1aaaaa
b100 aaaab
1aaaaj

#273750
0aaaaa

#275000
1aaaaa
b101 aaaab
0aaaaj
0aaaak

#276250
0aaaaa

#277500
1aaaaa
0aaaae
b100100 aaaai
1aaaak

#278750
0aaaaa

#280000
1aaaaa
0aaaad
1aaaaj

#281250
0aaaaa

#282500
1aaaaa
b1011 aaaac
1aaaae
0aaaaj
0aaaak

#283750
0aaaaa

#285000
1aaaaa
1aaaad
b100 aaaaf
b100101 aaaai
1aaaak

#286250
0aaaaa

#287500
1aaaaa
b0 aaaab
1aaaaj

#288750
0aaaaa

#290000
1aaaaa
b1 aaaab
0aaaaj
0aaaak

#291250
0aaaaa

#292500
1aaaaa
b10 aaaab
b11 aaaaf
b100110 aaaai
1aaaak

#293750
0aaaaa

#295000
1aaaaa
b11 aaaab
1aaaaj

#296250
0aaaaa

#297500
1aaaaa
b100 aaaab
0aaaaj
0aaaak

#298750
0aaaaa

#300000
1aaaaa
b101 aaaab
b1 aaaaf
b100111 aaaai
1aaaak

#301250
0aaaaa

#302500
1aaaaa
b110 aaaab
1aaaaj

#303750
0aaaaa

#305000
1aaaaa
b111 aaaab
0aaaaj
0aaaak

#306250
0aaaaa

#307500
1aaaaa
b1000 aaaab
b101000 aaaai
1aaaak

#308750
0aaaaa

#310000
1aaaaa
b1001 aaaab
1aaaaj

#311250
0aaaaa

#312500
1aaaaa
0aaaae
0aaaaj
0aaaak

#313750
0aaaaa

#315000
1aaaaa
0aaaad
b10 aaaaf
b101001 aaaai
1aaaak

#316250
0aaaaa

#317500
1aaaaa
b1100 aaaac
1aaaae
1aaaaj

#318750
0aaaaa

#320000
1aaaaa
1aaaad
0aaaaj
0aaaak

#321250
0aaaaa

#322500
1aaaaa
b0 aaaab
b0 aaaaf
b101010 aaaai
1aaaak

#323750
0aaaaa

#325000
1aaaaa
b1 aaaab
1aaaaj

#326250
0aaaaa

#327500
1aaaaa
b10 aaaab
0aaaaj
0aaaak

#328750
0aaaaa

#330000
1aaaaa
b11 aaaab
b10 aaaaf
b101011 aaaai
1aaaak

#331250
0aaaaa

#332500
1aaaaa
0aaaae
1aaaaj

#333750
0aaaaa

#335000
1aaaaa
0aaaad
0aaaaj
0aaaak

#336250
0aaaaa

#337500
1aaaaa
b1101 aaaac
1aaaae
b101100 aaaai
1aaaak

#338750
0aaaaa

#340000
1aaaaa
1aaaad
1aaaaj

#341250
0aaaaa

#342500
1aaaaa
b0 aaaab
0aaaaj
0aaaak

#343750
0aaaaa

#345000
1aaaaa
b1 aaaab
b11 aaaaf
b101101 aaaai
1aaaak

#346250
0aaaaa

#347500
1aaaaa
0aaaae
1aaaaj

#348750
0aaaaa

#350000
1aaaaa
0aaaad
0aaaaj
0aaaak

#351250
0aaaaa

#352500
1aaaaa
b1110 aaaac
1aaaae
b0 aaaaf
b101110 aaaai
1aaaak

#353750
0aaaaa

#355000
1aaaaa
1aaaad
1aaaaj

#356250
0aaaaa

#357500
1aaaaa
b0 aaaab
0aaaaj
0aaaak

#358750
0aaaaa

#360000
1aaaaa
b1 aaaab
b10 aaaaf
b101111 aaaai
1aaaak

#361250
0aaaaa

#362500
1aaaaa
b10 aaaab
1aaaaj

#363750
0aaaaa

#365000
1aaaaa
b11 aaaab
0aaaaj
0aaaak

#366250
0aaaaa

#367500
1aaaaa
b100 aaaab
b1 aaaaf
b110000 aaaai
1aaaak

#368750
0aaaaa

#370000
1aaaaa
b101 aaaab
1aaaaj

#371250
0aaaaa

#372500
1aaaaa
0aaaae
0aaaaj
0aaaak

#373750
0aaaaa

#375000
1aaaaa
0aaaad
b11 aaaaf
b110001 aaaai
1aaaak

#376250
0aaaaa

#377500
1aaaaa
b1111 aaaac
1aaaae
1aaaaj

#378750
0aaaaa

#380000
1aaaaa
1aaaad
0aaaaj
0aaaak

#381250
0aaaaa

#382500
1aaaaa
b0 aaaab
b1 aaaaf
b110010 aaaai
1aaaak

#383750
0aaaaa

#385000
1aaaaa
b1 aaaab
1aaaaj

#386250
0aaaaa

#387500
1aaaaa
b10 aaaab
0aaaaj
0aaaak

#388750
0aaaaa

#390000
1aaaaa
b11 aaaab
b10 aaaaf
b110011 aaaai
1aaaak

#391250
0aaaaa

#392500
1aaaaa
0aaaae
1aaaaj

#393750
0aaaaa

#395000
1aaaaa
0aaaad
0aaaaj
0aaaak

#396250
0aaaaa

#397500
1aaaaa
b10000 aaaac
1aaaae
b1 aaaaf
b110100 aaaai
1aaaak

#398750
0aaaaa

#400000
1aaaaa
1aaaad
1aaaaj

#401250
0aaaaa

#402500
1aaaaa
b0 aaaab
0aaaaj
0aaaak

#403750
0aaaaa

#405000
1aaaaa
b1 aaaab
b110101 aaaai
1aaaak

#406250
0aaaaa

#407500
1aaaaa
b10 aaaab
1aaaaj

#408750
0aaaaa

#410000
1aaaaa
b11 aaaab
0aaaaj
0aaaak

#411250
0aaaaa

#412500
1aaaaa
0aaaae
b100 aaaaf
b110110 aaaai
1aaaak

#413750
0aaaaa

#415000
1aaaaa
0aaaad
1aaaaj

#416250
0aaaaa

#417500
1aaaaa
b10001 aaaac
1aaaae
0aaaaj
0aaaak

#418750
0aaaaa

#420000
1aaaaa
1aaaad
b1 aaaaf
b110111 aaaai
1aaaak

#421250
0aaaaa

#422500
1aaaaa
b0 aaaab
1aaaaj

#423750
0aaaaa

#425000
1aaaaa
b1 aaaab
0aaaaj
0aaaak

#426250
0aaaaa

#427500
1aaaaa
b10 aaaab
b111000 aaaai
1aaaak

#428750
0aaaaa

#430000
1aaaaa
b11 aaaab
1aaaaj

#431250
0aaaaa

#432500
1aaaaa
b100 aaaab
0aaaaj
0aaaak

#433750
0aaaaa

#435000
1aaaaa
b101 aaaab
b10 aaaaf
b111001 aaaai
1aaaak

#436250
0aaaaa

#437500
1aaaaa
0aaaae
1aaaaj

#438750
0aaaaa

#440000
1aaaaa
0aaaad
0aaaaj
0aaaak

#441250
0aaaaa

#442500
1aaaaa
b10010 aaaac
1aaaae
b111010 aaaai
1aaaak

#443750
0aaaaa

#445000
1aaaaa
1aaaad
1aaaaj

#446250
0aaaaa

#447500
1aaaaa
b0 aaaab
0aaaaj
0aaaak

#448750
0aaaaa

#450000
1aaaaa
b1 aaaab
b100 aaaaf
b111011 aaaai
1aaaak

#451250
0aaaaa

#452500
1aaaaa
b10 aaaab
1aaaaj

#453750
0aaaaa

#455000
1aaaaa
b11 aaaab
0aaaaj
0aaaak

#456250
0aaaaa

#457500
1aaaaa
b100 aaaab
b111100 aaaai
1aaaak

#458750
0aaaaa

#460000
1aaaaa
b101 aaaab
1aaaaj

#461250
0aaaaa

#462500
1aaaaa
b110 aaaab
0aaaaj
0aaaak

#463750
0aaaaa

#465000
1aaaaa
b111 aaaab
b1 aaaaf
b111101 aaaai
1aaaak

#466250
0aaaaa

#467500
1aaaaa
b1000 aaaab
1aaaaj

#468750
0aaaaa

#470000
1aaaaa
b1001 aaaab
0aaaaj
0aaaak

#471250
0aaaaa

#472500
1aaaaa
0aaaae
b10 aaaaf
b111110 aaaai
1aaaak

#473750
0aaaaa

#475000
1aaaaa
0aaaad
1aaaaj

#476250
0aaaaa

#477500
1aaaaa
b10011 aaaac
1aaaae
0aaaaj
0aaaak

#478750
0aaaaa

#480000
1aaaaa
1aaaad
b0 aaaaf
b111111 aaaai
1aaaak

#481250
0aaaaa

#482500
1aaaaa
b0 aaaab
1aaaaj

#483750
0aaaaa

#485000
1aaaaa
b1 aaaab
0aaaaj
0aaaak

#486250
0aaaaa

#487500
1aaaaa
b10 aaaab
b11 aaaaf
b1000000 aaaai
1aaaak

#488750
0aaaaa

#490000
1aaaaa
b11 aaaab
1aaaaj

#491250
0aaaaa

#492500
1aaaaa
b100 aaaab
0aaaaj
0aaaak

#493750
0aaaaa

#495000
1aaaaa
b101 aaaab
b1 aaaaf
b1000001 aaaai
1aaaak

#496250
0aaaaa

#497500
1aaaaa
0aaaae
1aaaaj

#498750
0aaaaa

#500000
1aaaaa
0aaaad
0aaaaj
0aaaak

#501250
0aaaaa

#502500
1aaaaa
b10100 aaaac
1aaaae
b1000010 aaaai
1aaaak

#503750
0aaaaa

#505000
1aaaaa
1aaaad
1aaaaj

#506250
0aaaaa

#507500
1aaaaa
b0 aaaab
0aaaaj
0aaaak

#508750
0aaaaa

#510000
1aaaaa
b1 aaaab
b11 aaaaf
b1000011 aaaai
1aaaak

#511250
0aaaaa

#512500
1aaaaa
b10 aaaab
1aaaaj

#513750
0aaaaa

#515000
1aaaaa
b11 aaaab
0aaaaj
0aaaak

#516250
0aaaaa

#517500
1aaaaa
b100 aaaab
b0 aaaaf
b1000100 aaaai
1aaaak

#518750
0aaaaa

#520000
1aaaaa
b101 aaaab
1aaaaj

#521250
0aaaaa

#522500
1aaaaa
b110 aaaab
0aaaaj
0aaaak

#523750
0aaaaa

#525000
1aaaaa
b111 aaaab
b1000101 aaaai
1aaaak

#526250
0aaaaa

#527500
1aaaaa
b1000 aaaab
1aaaaj

#528750
0aaaaa

#530000
1aaaaa
b1001 aaaab
0aaaaj
0aaaak

#531250
0aaaaa

#532500
1aaaaa
0aaaae
b100 aaaaf
b1000110 aaaai
1aaaak

#533750
0aaaaa

#535000
1aaaaa
0aaaad
1aaaaj

#536250
0aaaaa

#537500
1aaaaa
b10101 aaaac
1aaaae
0aaaaj
0aaaak

#538750
0aaaaa

#540000
1aaaaa
1aaaad
b11 aaaaf
b1000111 aaaai
1aaaak

#541250
0aaaaa

#542500
1aaaaa
b0 aaaab
1aaaaj

#543750
0aaaaa

#545000
1aaaaa
b1 aaaab
0aaaaj
0aaaak

#546250
0aaaaa

#547500
1aaaaa
0aaaae
b10 aaaaf
b1001000 aaaai
1aaaak

#548750
0aaaaa

#550000
1aaaaa
0aaaad
1aaaaj

#551250
0aaaaa

#552500
1aaaaa
b10110 aaaac
1aaaae
0aaaaj
0aaaak

#553750
0aaaaa

#555000
1aaaaa
1aaaad
b1 aaaaf
b1001001 aaaai
1aaaak

#556250
0aaaaa

#557500
1aaaaa
b0 aaaab
1aaaaj

#558750
0aaaaa

#560000
1aaaaa
b1 aaaab
0aaaaj
0aaaak

#561250
0aaaaa

#562500
1aaaaa
0aaaae
b1001010 aaaai
1aaaak

#563750
0aaaaa

#565000
1aaaaa
0aaaad
1aaaaj

#566250
0aaaaa

#567500
1aaaaa
b10111 aaaac
1aaaae
0aaaaj
0aaaak

#568750
0aaaaa

#570000
1aaaaa
1aaaad
b1001011 aaaai
1aaaak

#571250
0aaaaa

#572500
1aaaaa
b0 aaaab
1aaaaj

#573750
0aaaaa

#575000
1aaaaa
b1 aaaab
0aaaaj
0aaaak

#576250
0aaaaa

#577500
1aaaaa
b10 aaaab
b10 aaaaf
b1001100 aaaai
1aaaak

#578750
0aaaaa

#580000
1aaaaa
b11 aaaab
1aaaaj

#581250
0aaaaa

#582500
1aaaaa
b100 aaaab
0aaaaj
0aaaak

#583750
0aaaaa

#585000
1aaaaa
b101 aaaab
b0 aaaaf
b1001101 aaaai
1aaaak

#586250
0aaaaa

#587500
1aaaaa
0aaaae
1aaaaj

#588750
0aaaaa

#590000
1aaaaa
0aaaad
0aaaaj
0aaaak

#591250
0aaaaa

#592500
1aaaaa
b11000 aaaac
1aaaae
b100 aaaaf
b1001110 aaaai
1aaaak

#593750
0aaaaa

#595000
1aaaaa
1aaaad
1aaaaj

#596250
0aaaaa

#597500
1aaaaa
b0 aaaab
0aaaaj
0aaaak

#598750
0aaaaa

#600000
1aaaaa
b1 aaaab
b1 aaaaf
b1001111 aaaai
1aaaak

#601250
0aaaaa

#602500
1aaaaa
b10 aaaab
1aaaaj

#603750
0aaaaa

#605000
1aaaaa
b11 aaaab
0aaaaj
0aaaak

#606250
0aaaaa

#607500
1aaaaa
0aaaae
b11 aaaaf
b1010000 aaaai
1aaaak

#608750
0aaaaa

#610000
1aaaaa
0aaaad
1aaaaj

#611250
0aaaaa

#612500
1aaaaa
b11001 aaaac
1aaaae
0aaaaj
0aaaak

#613750
0aaaaa

#615000
1aaaaa
1aaaad
b1 aaaaf
b1010001 aaaai
1aaaak

#616250
0aaaaa

#617500
1aaaaa
b0 aaaab
1aaaaj

#618750
0aaaaa

#620000
1aaaaa
b1 aaaab
0aaaaj
0aaaak

#621250
0aaaaa

#622500
1aaaaa
b10 aaaab
b0 aaaaf
b1010010 aaaai
1aaaak

#623750
0aaaaa

#625000
1aaaaa
b11 aaaab
1aaaaj

#626250
0aaaaa

#627500
1aaaaa
b100 aaaab
0aaaaj
0aaaak

#628750
0aaaaa

#630000
1aaaaa
b101 aaaab
b1 aaaaf
b1010011 aaaai
1aaaak

#631250
0aaaaa

#632500
1aaaaa
0aaaae
1aaaaj

#633750
0aaaaa

#635000
1aaaaa
0aaaad
0aaaaj
0aaaak

#636250
0aaaaa

#637500
1aaaaa
b11010 aaaac
1aaaae
b0 aaaaf
b1010100 aaaai
1aaaak

#638750
0aaaaa

#640000
1aaaaa
1aaaad
1aaaaj

#641250
0aaaaa

#642500
1aaaaa
b0 aaaab
0aaaaj
0aaaak

#643750
0aaaaa

#645000
1aaaaa
b1 aaaab
b1010101 aaaai
1aaaak

#646250
0aaaaa

#647500
1aaaaa
0aaaae
1aaaaj

#648750
0aaaaa

#650000
1aaaaa
0aaaad
0aaaaj
0aaaak

#651250
0aaaaa

#652500
1aaaaa
b11011 aaaac
1aaaae
b1 aaaaf
b1010110 aaaai
1aaaak

#653750
0aaaaa

#655000
1aaaaa
1aaaad
1aaaaj

#656250
0aaaaa

#657500
1aaaaa
b0 aaaab
0aaaaj
0aaaak

#658750
0aaaaa

#660000
1aaaaa
b1 aaaab
b0 aaaaf
b1010111 aaaai
1aaaak

#661250
0aaaaa

#662500
1aaaaa
b10 aaaab
1aaaaj

#663750
0aaaaa

#665000
1aaaaa
b11 aaaab
0aaaaj
0aaaak

#666250
0aaaaa

#667500
1aaaaa
0aaaae
b11 aaaaf
b1011000 aaaai
1aaaak

#668750
0aaaaa

#670000
1aaaaa
0aaaad
1aaaaj

#671250
0aaaaa

#672500
1aaaaa
b11100 aaaac
1aaaae
0aaaaj
0aaaak

#673750
0aaaaa

#675000
1aaaaa
1aaaad
b100 aaaaf
b1011001 aaaai
1aaaak

#676250
0aaaaa

#677500
1aaaaa
b0 aaaab
1aaaaj

#678750
0aaaaa

#680000
1aaaaa
b1 aaaab
0aaaaj
0aaaak

#681250
0aaaaa

#682500
1aaaaa
b10 aaaab
b0 aaaaf
b1011010 aaaai
1aaaak

#683750
0aaaaa

#685000
1aaaaa
b11 aaaab
1aaaaj

#686250
0aaaaa

#687500
1aaaaa
b100 aaaab
0aaaaj
0aaaak

#688750
0aaaaa

#690000
1aaaaa
b101 aaaab
b1011011 aaaai
1aaaak

#691250
0aaaaa

#692500
1aaaaa
b110 aaaab
1aaaaj

#693750
0aaaaa

#695000
1aaaaa
b111 aaaab
0aaaaj
0aaaak

#696250
0aaaaa

#697500
1aaaaa
b1000 aaaab
b1 aaaaf
b1011100 aaaai
1aaaak

#698750
0aaaaa

#700000
1aaaaa
b1001 aaaab
1aaaaj

#701250
0aaaaa

#702500
1aaaaa
0aaaae
0aaaaj
0aaaak

#703750
0aaaaa

#705000
1aaaaa
0aaaad
b1011101 aaaai
1aaaak

#706250
0aaaaa

#707500
1aaaaa
b11101 aaaac
1aaaae
1aaaaj

#708750
0aaaaa

#710000
1aaaaa
1aaaad
0aaaaj
0aaaak

#711250
0aaaaa

#712500
1aaaaa
b0 aaaab
b11 aaaaf
b1011110 aaaai
1aaaak

#713750
0aaaaa

#715000
1aaaaa
b1 aaaab
1aaaaj

#716250
0aaaaa

#717500
1aaaaa
0aaaae
0aaaaj
0aaaak

#718750
0aaaaa

#720000
1aaaaa
0aaaad
b10 aaaaf
b1011111 aaaai
1aaaak

#721250
0aaaaa

#722500
1aaaaa
b11110 aaaac
1aaaae
1aaaaj

#723750
0aaaaa

#725000
1aaaaa
1aaaad
0aaaaj
0aaaak

#726250
0aaaaa

#727500
1aaaaa
b0 aaaab
b11 aaaaf
b1100000 aaaai
1aaaak

#728750
0aaaaa

#730000
1aaaaa
b1 aaaab
1aaaaj

#731250
0aaaaa

#732500
1aaaaa
b10 aaaab
0aaaaj
0aaaak

#733750
0aaaaa

#735000
1aaaaa
b11 aaaab
b0 aaaaf
b1100001 aaaai
1aaaak

#736250
0aaaaa

#737500
1aaaaa
b100 aaaab
1aaaaj

#738750
0aaaaa

#740000
1aaaaa
b101 aaaab
0aaaaj
0aaaak

#741250
0aaaaa

#742500
1aaaaa
b110 aaaab
b1100010 aaaai
1aaaak

#743750
0aaaaa

#745000
1aaaaa
b111 aaaab
1aaaaj

#746250
0aaaaa

#747500
1aaaaa
0aaaae
0aaaaj
0aaaak

#748750
0aaaaa

#750000
1aaaaa
0aaaad
b100 aaaaf
b1100011 aaaai
1aaaak

#751250
0aaaaa

#752500
1aaaaa
b11111 aaaac
1aaaae
1aaaaj

#753750
0aaaaa

#755000
1aaaaa
1aaaad
0aaaaj
0aaaak

#756250
0aaaaa

#757500
1aaaaa
b0 aaaab
b10 aaaaf
b1100100 aaaai
1aaaak

#758750
0aaaaa

#760000
1aaaaa
b1 aaaab
1aaaaj

#761250
0aaaaa

#762500
1aaaaa
0aaaae
0aaaaj
0aaaak

#763750
0aaaaa

#765000
1aaaaa
0aaaad
b1100101 aaaai
1aaaak

#766250
0aaaaa

#767500
1aaaaa
b100000 aaaac
1aaaae
1aaaaj

#768750
0aaaaa

#770000
1aaaaa
1aaaad
0aaaaj
0aaaak

#771250
0aaaaa

#772500
1aaaaa
b0 aaaab
b1100110 aaaai
1aaaak

#773750
0aaaaa

#775000
1aaaaa
b1 aaaab
1aaaaj

#776250
0aaaaa

#777500
1aaaaa
b10 aaaab
0aaaaj
0aaaak

#778750
0aaaaa

#780000
1aaaaa
b11 aaaab
b1 aaaaf
b1100111 aaaai
1aaaak

#781250
0aaaaa

#782500
1aaaaa
b100 aaaab
1aaaaj

#783750
0aaaaa

#785000
1aaaaa
b101 aaaab
0aaaaj
0aaaak

#786250
0aaaaa

#787500
1aaaaa
b110 aaaab
b100 aaaaf
b1101000 aaaai
1aaaak

#788750
0aaaaa

#790000
1aaaaa
b111 aaaab
1aaaaj

#791250
0aaaaa

#792500
1aaaaa
0aaaae
0aaaaj
0aaaak

#793750
0aaaaa

#795000
1aaaaa
0aaaad
b10 aaaaf
b1101001 aaaai
1aaaak

#796250
0aaaaa

#797500
1aaaaa
b100001 aaaac
1aaaae
1aaaaj

#798750
0aaaaa

#800000
1aaaaa
1aaaad
0aaaaj
0aaaak

#801250
0aaaaa

#802500
1aaaaa
b0 aaaab
b0 aaaaf
b1101010 aaaai
1aaaak

#803750
0aaaaa

#805000
1aaaaa
b1 aaaab
1aaaaj

#806250
0aaaaa

#807500
1aaaaa
b10 aaaab
0aaaaj
0aaaak

#808750
0aaaaa

#810000
1aaaaa
b11 aaaab
b1 aaaaf
b1101011 aaaai
1aaaak

#811250
0aaaaa

#812500
1aaaaa
b100 aaaab
1aaaaj

#813750
0aaaaa

#815000
1aaaaa
b101 aaaab
0aaaaj
0aaaak

#816250
0aaaaa

#817500
1aaaaa
b110 aaaab
b100 aaaaf
b1101100 aaaai
1aaaak

#818750
0aaaaa

#820000
1aaaaa
b111 aaaab
1aaaaj

#821250
0aaaaa

#822500
1aaaaa
b1000 aaaab
0aaaaj
0aaaak

#823750
0aaaaa

#825000
1aaaaa
b1001 aaaab
b1101101 aaaai
1aaaak

#826250
0aaaaa

